<?xml version="1.0"?>
<svg xmlns="http://www.w3.org/2000/svg" viewBox="0 0 512.002 512.002" enable-background="new 0 0 512.002 512.002">
  <path fill="#41479B" d="M503.17 423.73H8.83c-4.88 0-8.83-3.96-8.83-8.83V97.1c0-4.87 3.95-8.82 8.83-8.82h494.34c4.88 0 8.83 3.95 8.83 8.82v317.8c0 4.87-3.95 8.83-8.83 8.83z"/>
  <path fill="#F5F5F5" d="M512 97.1c0-4.87-3.95-8.82-8.83-8.82h-39.5L300.15 195.42V88.28h-88.28v107.14L48.32 88.28H8.82C3.96 88.28 0 92.23 0 97.1v22.84l140.3 91.92H0v88.28h140.3L0 392.07v22.83c0 4.87 3.95 8.83 8.83 8.83h39.5l163.53-107.15v107.14h88.28V316.58l163.54 107.14h39.5c4.87 0 8.82-3.95 8.82-8.82v-22.83l-140.3-91.93H512v-88.28H371.7L512 119.93V97.1z"/>
  <g fill="#FF4B55">
    <path d="M512 229.52H282.48V88.28h-52.96v141.24H0v52.96h229.52v141.25h52.96V282.48H512zM178.95 300.14l-178.7 116c.63 4.26 4.14 7.6 8.58 7.6H21l190.38-123.6h-32.43zM346.4 300.14h-32.44l190.1 123.4c4.44-.47 7.94-4.1 7.94-8.64v-7.26l-165.6-107.5zM0 106.85l161.78 105h32.43L5.15 89.16C2.12 90.54 0 93.54 0 97.1v9.75zM332.57 211.86L511.7 95.6c-.75-4.14-4.2-7.32-8.53-7.32h-12.65L300.14 211.86h32.43z"/>
  </g>
</svg>
